965351 817028 525
155727 459021 449
694431 861373 525
227638 654795 509
654280 189051 509
885862 623813 525
455279 224282 449
597169 636674 509
880122 703898 525
44517 597883 470
127334 694803 509
319831 860780 525
759250 600411 509
87190 605421 470
559886 13266 470
827995 381534 509
916096 166105 525
813265 485968 509
431015 597692 470
161382 772123 509
853877 849480 357
285430 573457 470
370757 930595 525
30642 469802 449
122422 790177 509
806806 816432 406
629171 142234 509
831210 699519 504
177901 641040 509
279286 552281 470
147001 339782 443
217869 526633 470
291439 607929 470
199832 376537 443
846808 122008 525
570206 503890 470
620732 867950 525
831535 990862 525
121540 735147 509
795986 659095 504
645449 244417 509
858793 572245 525
34404 748145 509
926364 997493 507
859574 402578 525
688802 654138 442
48939 18753 324
167571 358407 443
740411 794207 468
447591 414329 418
950630 473506 525
545666 631415 509
36631 460585 449
275404 243282 407
55485 220413 386
73715 648630 509
967178 353238 525
50454 875359 525
58972 872837 525
844794 918426 476
637097 337422 509
190257 924390 525
616883 575159 447
925951 482207 525
843359 515489 525
782685 155357 509
222916 784016 509
938368 900528 476
640406 837963 525
730430 111051 509
945353 715844 525
340633 51839 443
380414 782231 509
289852 452313 449
679742 970364 525
214102 262786 443
93579 612014 470
83391 352118 443
812070 786868 468
941403 375910 525
219484 283969 443
341460 501494 449
998811 431809 525
85022 512718 470
982046 300295 525
879971 656038 525
684573 293017 509
214944 325710 443
92006 764928 509
288245 70216 443
208280 770234 509
40809 374221 443
328558 583578 470
183949 800882 509
234513 653735 509
64616 915376 525
793896 416189 509
861509 133470 525
877628 236858 525
960967 588804 525
592178 813434 509
363701 882091 525
877643 527931 525
863805 991604 507
279621 865070 525
495724 739484 509
487722 73506 449
665921 386207 509
5884 671060 509
4206 603587 470
226821 669855 509
836706 494977 509
951770 439825 525
377957 648129 509
370552 941572 525
898689 796884 525
601096 482053 470
701173 76849 509
856629 530370 525
576349 863930 525
304362 909488 525
965507 821278 525
638034 72009 509
200224 81941 383
526048 817833 509
131282 707368 509
81839 261664 443
396296 210220 443
447254 391143 449
145742 71420 375
709918 77327 509
894924 625168 525
535054 175558 470
223380 830418 509
74165 254113 443
277291 686274 509
844839 201584 525
510225 538126 470
608072 274911 470
129790 561757 470
682947 631980 442
697365 639947 442
537393 374331 470
254881 902527 525
143873 933118 525
885788 883338 370
692993 137325 509
265692 43678 443
175118 272069 443
808175 375478 509
255179 470910 449
61460 330736 443
312522 180321 443
456768 645368 509
749998 872512 525
143039 300233 443
989519 396609 525
831990 607042 509
2646 123892 354
128410 14530 354
830457 162290 509
874772 561878 525
104038 85669 341
194084 401616 443
348568 774538 509
1296 586377 470
598211 169626 470
815729 706619 468
370055 843792 525
348684 319302 441
258106 969177 525
44364 170215 383
327249 25512 443
600291 286059 470
689894 928353 525
628138 263893 509
506642 848382 525
905587 489176 525
542846 99140 470
961962 826981 525
87527 280876 443
838020 392261 525
573690 405676 470
363809 712663 509
452488 669245 509
165162 369060 443
664698 622063 509
253872 807835 509
305275 590832 470
80099 593334 470
429709 72059 449
241041 166474 443
228419 369137 443
970056 113155 525
879410 95627 525
560707 962057 525
52775 31906 340
259886 877556 525
311045 494594 449
54385 523883 470
567341 660582 509
235118 227353 443
586363 458064 470
647763 959296 525
45959 976130 525
462500 163671 449
24550 366270 443
